{
	"rooms":{
		"1": {
			"N": {
				"torch1": {
					"type": "flashlight",
					"properties": {
						"state": 0,
						"battery": 0
					}
				}
			},
			"E": {
				"door1": {
					"type": "door",
					"properties": {
						"open": 0,
						"destination" : 2
					}
				}
			},
			"S": {
			},
			"W": {
			}
		},
		"2": {
			"N": {
			},
			"E": {
			},
			"S": {
				"door2": {
					"type": "door",
					"properties": {
						"open": 0,
						"destination" : 3
					}
				}
			},
			"W": {
				"door1": {
					"type": "door",
					"properties": {
						"open": 0,
						"destination" : 1
					}
				}
			}
		},
		"3": {
			"N": {
				"door2": {
					"type": "door",
					"properties": {
						"open": 0,
						"destination" : 2
					}
				}
			},
			"E": {
			},
			"S": {
				"brenda1": {
					"type": "brenda",
					"properties":{
					}
				}
			},
			"W": {
				"door3": {
					"type": "door",
					"properties": {
						"open": 0,
						"destination" : 4
					}
				}
			}
		},
		"4": {
			"N": {
			},
			"E": {
				"door3": {
					"type": "door",
					"properties": {
						"open": 0,
						"destination" : 3
					}
				}
			},
			"S": {
			},
			"W": {
				"door4": {
					"type": "door",
					"properties": {
						"open": 0,
						"destination" : 0
					}
				}
			}
		}
	},
	
	"player": {
		"inventory": {
		},
		"position": 1,
		"view": "N"
	}
}